com/healspace/clari/notifier/PatientImpl.class
com/healspace/clari/notifier/servlet/BaseServlet.class
com/healspace/clari/notifier/MeanSDWaitingTimeCalcTest.class
com/healspace/clari/notifier/PatientInfo.class
com/healspace/clari/notifier/AvgWaitingTimeCalc.class
com/healspace/clari/notifier/Mean2SDWaitingTimeCalc.class
com/healspace/clari/notifier/WaitingTimeCalc.class
com/healspace/clari/notifier/impl/ConsulatantTimePoints.class
com/healspace/clari/notifier/impl/PatientWaitingTimeCalculator.class
com/healspace/clari/notifier/servlet/CheckinServlet.class
com/healspace/clari/notifier/Email.class
com/healspace/clari/notifier/ClariSmsSender.class
com/healspace/clari/notifier/servlet/DoctorSeeServlet.class
com/healspace/clari/notifier/DummySmsSenderImpl.class
com/healspace/clari/notifier/AbstractSmsSender.class
com/healspace/clari/notifier/MeanSDWaitingTimeCalc.class
com/healspace/clari/notifier/MongoDao.class
com/healspace/clari/notifier/impl/WaitingTimeNotifierManager$WaitingTimeNotifier.class
com/healspace/clari/notifier/impl/WaitingTimeNotifierManager.class
com/healspace/clari/notifier/impl/DoctorImpl.class
com/healspace/clari/notifier/ClariSmsSenderImpl.class
com/healspace/clari/notifier/HttpSmsSender.class
com/healspace/clari/notifier/impl/ConsulatationTimePoint.class
com/healspace/clari/notifier/ClariDao.class
